{
	"id": "chleb-tostowy",
	"title": "Chleb tostowy",
	"author": "Dominik Marczuk",
	"difficulty": 3,
	"time": "18 godzin",
	"servings": 1,
	"tags": [
		"pieczywo",
		"wegetariańskie"
	],
	"description": "Prosty chleb tostowy z lekko mleczno-maślanym posmakiem. Świetny do tostów i kanapek na słodko.",
	"meta": {
		"bread": {
			"flour": 600,
			"liquid": 390,
			"yeast": 12,
			"salt": 12,
			"fat": 50
		}
	},
	"parts": [
		{
			"title": "Zaczyn (poolish)",
			"ingredients": [
				{
					"id": "maka-chlebowa",
					"label": "100 g mąki pszennej chlebowej"
				},
				{
					"id": "woda",
					"label": "100 g wody"
				},
				{
					"id": "drozdze",
					"label": "2 g drożdży świeżych"
				}
			],
			"steps": [
				"Zaczyn przygotować dnia poprzedzającego pieczenie.",
				"Zmieszać składniki i pozostawić na minimum 12 godzin w misce zakrytej folią spożywczą."
			]
		},
		{
			"title": "Chleb",
			"ingredients": [
				{
					"id": "maka-chlebowa",
					"label": "500 g mąki pszennej chlebowej"
				},
				{
					"id": "mleko",
					"label": "290 g mleka"
				},
				{
					"id": "maslo",
					"label": "50 g roztopionego masła"
				},
				{
					"id": "drozdze",
					"label": "10 g drożdży świeżych"
				},
				{
					"id": "sol",
					"label": "12 g soli"
				}
			],
			"steps": [
				"W misie zmieszać przygotowany zaczyn z resztą składników. Wyrabiać intensywnie przez 10 minut.",
				"Wyrastanie wstępne: 1 godzina. Ciasto powinno co najmniej podwoić objętość.",
				"Przebić ciasto. Uformować kwadrat o boku mniej więcej równym długości keksówki. Zwinąć ciasto w ciasne cygaro i umieścić w wyłożonej pergaminem keksówce.",
				"Wyrastanie końcowe: 1 godzina. Po wyrośnięciu ciasto powinno wyraźnie wystawać poza keksówkę. Piec w temperaturze 180°C przez 30-35 minut.",
				"Wyjąć bochenek z keksówki i schłodzić na kratce.",
				"W celu wzbogacenia smaku, warto 100 g mąki białej zamienić na pełnoziarnistą.",
				"Do ciasta można też dodać więcej masła i do 5% cukru w celu uzyskania pieczywa maślanego."
			]
		}
	]
}
