{
	"id": "kapusta-zasmazana",
	"image": "https://www.dropbox.com/s/zccc9tvsg32ov35/kapusta-zasmazana.jpg",
	"title": "Kapusta zasmażana",
	"author": "?",
	"difficulty": 2,
	"time": "2 godziny",
	"servings": 4,
	"tags": [
		"wegetariańskie",
		"dodatek"
	],
	"parts": [
		{
			"ingredients": [
				{
					"id": "kapusta-kiszona",
					"label": "500 g kiszonej kapusty"
				},
				{
					"id": "cebula",
					"label": "1 średnia cebula"
				},
				{
					"id": "maka-pszenna",
					"label": "1 łyżka mąki pszennej"
				},
				{
					"id": "maslo",
					"label": "1 łyżka masła"
				},
				{
					"id": "miod",
					"label": "1 łyżka miodu"
				},
				{
					"id": "lisc-laurowy",
					"label": "liść laurowy"
				},
				{
					"id": "ziele-angielskie",
					"label": "kilka zaren ziela angielskiego"
				},
				{
					"id": ["sol", "pieprz"],
					"label": "sól i pieprz do smaku"
				}
			],
			"steps": [
				"Kapustę odciskamy z soku i siekamy w dość grubą kostkę. Ma to na celu skrócenie włókien kapusty; łatwiej będzie ją mieszać.",
				"Umieszczamy kapustę w rondlu, dodajemy ziele angielskie i liść laurowy i zalewamy całość wodą tak, by kapusta była przykryta. Doprowadzamy do wrzenia i dusimy na małym ogniu przez około półtorej godziny, aż do zmięknięcia kapusty. Uzupełniamy wodę w razie potrzeby.",
				"Siekamy cebulę i podsmażamy na maśle. Gdy się zeszkli, dodajemy mąkę i mieszamy aż do uzyskania suchych krupek mąki z cebulą. Wlewamy na patelnię kilka łyżek wody z rondelka z kapustą i mieszamy. W efekcie powinniśmy otrzymać gęstą zasmażkę.",
				"Zasmażkę dodajemy do kapusty. Dodajemy też miód, mieszamy, usuwamy liść laurowy i ziele angielskie. Doprawiamy solą i pieprzem do smaku.",
				"Podajemy zamiast surówki do różnych mięs, np. schabowego, czy pieczonej golonki.",
				"Kapustę można przygotować też w wersji niewegetariańskiej. W tym celu zasmażkę przygotowujemy inaczej. Kroimy w kostkę boczek i wytapiamy z niego tłuszcz. Na nim smażymy cebulę i ostatecznie przygotowujemy zasmażkę."
			]
		}
	]
}
